,Combination Concept,Head,Left,Right,Search,Text List
0,,RENT RANGE,"e best rent reasonably obtainable in the circumstances;

6.1.3	keep the Seller", £110 reserved by the new lease within five working,rental value of,J9 Agreement for Property sale-CONTRACT-100.docx
1,,RENT RANGE,s or proceedings in progress for the grant of a," £100, and the grant of a new Lease, and",rent of,J9 Agreement for Property sale-CONTRACT-100.docx
2,,RENT RANGE,"f the determination of an interim rent of £100, and"," £100 or the grant of a new Lease, as",rent of,J9 Agreement for Property sale-CONTRACT-100.docx
3,,RENT RANGE,"t reasonably obtainable in the circumstances;

6.1.3 keep the Seller informed", £110 reserved by the new lease within five working,rental value of,newrage.docx
4,,RENT RANGE,n progress for the grant of a new Lease by," £100, and the grant of a new Lease, and",rent of,newrage.docx
5,,RENT RANGE,"e determination of an interim rent of £100, and the"," £100 or the grant of a new Lease, as",rent of,newrage.docx
